895117 576835 525
182091 530042 470
815825 12885 509
107950 134321 349
465694 763880 509
315534 439233 449
31247 723341 509
730565 477845 509
90661 639151 509
207378 905314 525
875503 969013 507
481283 754574 509
981111 909736 507
350564 530917 470
162183 277521 443
814438 330765 509
529853 552269 452
414663 651391 509
846123 685409 525
521768 658381 509
274467 255662 407
108785 646005 509
8501 605815 470
283575 365556 441
389432 966319 525
494825 236706 449
427045 567058 470
232522 539578 470
409139 986157 525
477947 156622 449
610468 625850 447
12338 601054 470
548868 451216 470
307379 105148 443
150673 748747 509
866738 678021 525
977186 858367 507
922971 671494 525
695382 510270 509
911451 674415 525
100743 971215 525
636328 771492 504
753987 403006 509
24608 579493 470
544611 383401 470
735334 671871 504
801725 274627 509
406386 312041 441
381288 503922 449
653161 299559 509
788028 631044 504
658215 61761 509
889449 880851 445
31799 226748 386
278431 927378 525
328416 904767 525
463889 704482 509
983888 991028 427
601776 825630 509
754946 511354 509
242869 302641 407
569464 81320 470
177886 559303 470
726981 775092 468
329695 56754 443
619164 44058 470
487293 120767 449
286546 612390 470
919983 600494 525
631774 45750 509
58504 795956 509
330765 136555 443
197746 762455 509
32453 903569 525
913845 326064 525
16482 702603 509
488535 321415 449
609140 646614 509
894533 126021 525
995677 39243 525
43852 194572 383
941057 570285 525
355400 965732 525
416824 511315 444
617834 55793 470
909164 884691 445
395750 366336 436
545043 831024 509
684170 682148 380
751784 123749 509
250262 907644 525
684881 104006 509
978455 107366 525
156014 413951 449
530259 780138 509
218069 854267 525
609518 266055 470
877963 873640 432
145583 483175 449
561948 961577 525
797946 493798 509
209729 897534 525
370966 706185 509
57206 959347 525
459220 492474 444
196050 465856 449
205640 400347 443
245551 974191 525
71493 833074 509
346966 119837 443
803972 26986 509
965135 888052 507
274219 593489 470
239152 248254 368
158152 887533 525
76972 969209 525
147501 397955 443
8638 101914 351
984969 958266 458
485886 935861 525
879410 650263 525
158458 781391 509
560743 573428 421
258095 968949 525
242528 756385 509
434023 246326 449
130693 845682 525
437951 772640 509
29610 727293 509
180250 842378 525
267397 340720 407
509019 432564 444
891137 343235 525
500490 922001 525
684390 817723 504
692488 334356 509
783660 749377 468
105094 913571 525
106653 352116 443
174037 65304 383
905425 504291 525
398673 524973 470
686556 432030 509
529461 852052 525
629603 362888 509
162517 510580 449
206554 581998 470
158051 803234 509
864980 342519 525
814055 240613 509
392926 744878 509
973795 872628 507
960333 531251 525
584504 903497 525
746291 515353 509
877000 503068 525
415470 220792 449
805604 292800 509
761977 678055 504
540534 388740 470
666592 972159 525
170418 942819 525
875720 254959 525
790160 110160 509
411028 529728 470
359019 206821 443
671618 950957 525
939354 818887 525
3402 142341 354
792874 901294 525
401310 95381 443
677189 250174 509
532201 933512 525
575642 702411 509
946935 864534 507
205067 755232 509
911622 645366 525
491702 654452 509
340553 977645 525
781355 989386 525
490384 738363 509
412601 139002 449
925427 247290 525
932633 195420 525
423288 87700 449
379394 990863 525
810879 54617 509
772230 651660 504
495239 166263 449
653911 769807 504
72687 942887 525
246774 128271 443
311728 398979 441
523310 483975 470
235862 507655 449
990458 939232 507
853851 561105 525
952915 597649 525
905658 49443 525
889348 522610 525
368213 646160 509
273839 507990 449
921960 981865 507
52760 590292 470
506225 78021 449
771707 991972 525
907188 895760 445
256742 828840 509
315385 679277 509
101251 885119 525
392052 60827 443
597143 66140 470
929212 492464 525
302139 275691 389
611578 822088 509
715214 100501 509
400966 650601 509
127853 150431 375
813682 722029 468
50683 256362 443
647628 352621 509
557077 854904 525
253040 726925 509
160391 521240 470
859515 997419 507
429031 737530 509
731569 227731 509
101274 115945 354
44812 30727 324
994027 113552 525
202783 167428 365
887013 386988 525
675759 151751 509
395873 163422 443
20193 57279 340
918423 803040 525
665647 419509 509
763317 445116 509
894986 467540 525
914259 252868 525
346267 198513 443
458832 688665 509
922966 92985 525
527439 966784 525
998738 514644 525
587746 260707 470
111944 607959 470
39409 42508 306
383965 349353 423
14034 500268 449
196361 150269 383
850701 442326 525
217171 566513 470